const nomodify byte* DEFAULT_SCREEN = (byte*) 2048
const nomodify struct F018_DMAGIC* DMA = (struct F018_DMAGIC*) 55040
const nomodify byte DMA_COMMAND_COPY = 0
const byte OFFSET_STRUCT_DMA_LIST_F018B_COUNT = 1
const byte OFFSET_STRUCT_DMA_LIST_F018B_DEST = 6
const byte OFFSET_STRUCT_DMA_LIST_F018B_SRC = 3
const byte OFFSET_STRUCT_F018_DMAGIC_ADDRBANK = 2
const byte OFFSET_STRUCT_F018_DMAGIC_ADDRMB = 4
const byte OFFSET_STRUCT_F018_DMAGIC_ADDRMSB = 1
const byte OFFSET_STRUCT_F018_DMAGIC_EN018B = 3
void main()
void memcpy_dma(void* memcpy_dma::dest , void* memcpy_dma::src , word memcpy_dma::num)
void* memcpy_dma::dest
const void* memcpy_dma::dest#0 dest = (void*)DEFAULT_SCREEN
byte memcpy_dma::dmaMode
byte memcpy_dma::dmaMode#0 reg byte x 2.4444444444444446
word memcpy_dma::num
const word memcpy_dma::num#0 num = (word)$18*$50
void* memcpy_dma::src
const void* memcpy_dma::src#0 src = (void*)DEFAULT_SCREEN+$50
struct DMA_LIST_F018B memcpy_dma_command loadstore mem[12] = { command: DMA_COMMAND_COPY, count: 0, src: (byte*) 0, src_bank: 0, dest: (byte*) 0, dest_bank: 0, sub_command: 0, modulo: 0 }
void memoryRemap(byte memoryRemap::remapBlocks , word memoryRemap::lowerPageOffset , word memoryRemap::upperPageOffset)
const byte* memoryRemap::aVal = (byte*) 252
word memoryRemap::lowerPageOffset
byte memoryRemap::remapBlocks
word memoryRemap::upperPageOffset
const byte* memoryRemap::xVal = (byte*) 253
const byte* memoryRemap::yVal = (byte*) 254
const byte* memoryRemap::zVal = (byte*) 255

reg byte x [ memcpy_dma::dmaMode#0 ]
mem[12] [ memcpy_dma_command ]
