const byte* HEX[]  = "0123456789abcdef"
void __start()
byte idx loadstore zp[1]:11 5873.634920634922
byte* line loadstore zp[2]:9 2121.4545454545455
void main()
byte* main::s
byte* main::s#1 s zp[2]:2 202.0
byte* main::s#2 s zp[2]:2 134.66666666666666
void md5()
byte~ md5::$2 reg byte a 2002.0
byte md5::a
byte md5::a#1 a zp[1]:5 235.52941176470588
byte md5::a#3 reg byte y 667.3333333333334
byte md5::a#8 reg byte y 667.3333333333334
byte md5::a#9 a zp[1]:5 2002.0
byte md5::b
byte md5::b#1 b zp[1]:7 375.375
byte md5::b#2 b_1 zp[1]:4 263.42105263157896
byte md5::b#8 b_1 zp[1]:4 1001.0
byte md5::c
const byte md5::c#0 c = $98
byte md5::i
byte md5::i#1 reg byte x 500.5
byte md5::i#2 reg byte x 375.375
byte md5::temp
void print(byte print::i , byte print::a , byte print::b , byte print::c)
byte print::a
byte print::a#0 a zp[1]:6 667.3333333333334
byte print::a#1 a zp[1]:6 667.3333333333334
byte print::a#2 a zp[1]:6 1833.6666666666665
byte print::b
byte print::b#0 b zp[1]:7 1001.0
byte print::b#1 b zp[1]:7 1001.0
byte print::b#2 b zp[1]:7 1100.2
byte print::c
byte print::c#0 c zp[1]:8 2002.0
byte print::c#1 c zp[1]:8 2002.0
byte print::c#2 c zp[1]:8 785.8571428571429
byte print::i
byte print::i#0 reg byte x 500.5
byte print::i#1 reg byte x 500.5
byte~ print::print321_$0 reg byte a 20002.0
byte~ print::print321_$1 reg byte a 20002.0
byte print::print321_l
byte print::print321_l#0 reg byte x 5501.0
byte~ print::print322_$0 reg byte a 20002.0
byte~ print::print322_$1 reg byte a 20002.0
byte print::print322_l
byte~ print::print323_$0 reg byte a 20002.0
byte~ print::print323_$1 reg byte a 20002.0
byte print::print323_l
byte~ print::print324_$0 reg byte a 20002.0
byte~ print::print324_$1 reg byte a 20002.0
byte print::print324_l

zp[2]:2 [ main::s#2 main::s#1 ]
reg byte x [ md5::i#2 md5::i#1 ]
reg byte y [ md5::a#3 md5::a#8 ]
zp[1]:4 [ md5::b#2 md5::b#8 ]
zp[1]:5 [ md5::a#1 md5::a#9 ]
reg byte x [ print::print321_l#0 print::i#0 print::i#1 ]
zp[1]:6 [ print::a#2 print::a#0 print::a#1 ]
zp[1]:7 [ print::b#2 print::b#0 print::b#1 md5::b#1 ]
zp[1]:8 [ print::c#2 print::c#0 print::c#1 ]
zp[2]:9 [ line ]
zp[1]:11 [ idx ]
reg byte a [ md5::$2 ]
reg byte a [ print::print321_$0 ]
reg byte a [ print::print321_$1 ]
reg byte a [ print::print322_$0 ]
reg byte a [ print::print322_$1 ]
reg byte a [ print::print323_$0 ]
reg byte a [ print::print323_$1 ]
reg byte a [ print::print324_$0 ]
reg byte a [ print::print324_$1 ]
