const nomodify byte* BORDER_COLOR = (byte*) 53280
const nomodify byte* CHARGEN = (byte*) 53248
const nomodify byte* CHARSET8 = (byte*) 32768
const nomodify struct MOS6526_CIA* CIA2 = (struct MOS6526_CIA*) 56576
const nomodify byte DTV_BADLINE_OFF = $20
const nomodify byte DTV_CHUNKY = $40
const nomodify byte* DTV_CONTROL = (byte*) 53308
const nomodify byte* DTV_FEATURE = (byte*) 53311
const nomodify byte DTV_FEATURE_ENABLE = 1
const nomodify byte DTV_HIGHCOLOR = 4
const nomodify byte DTV_LINEAR = 1
const nomodify byte* DTV_PALETTE = (byte*) 53760
const nomodify byte* DTV_PLANEA_MODULO_HI = (byte*) 53305
const nomodify byte* DTV_PLANEA_MODULO_LO = (byte*) 53304
const nomodify byte* DTV_PLANEA_START_HI = (byte*) 53317
const nomodify byte* DTV_PLANEA_START_LO = (byte*) 53306
const nomodify byte* DTV_PLANEA_START_MI = (byte*) 53307
const nomodify byte* DTV_PLANEA_STEP = (byte*) 53318
const nomodify byte* DTV_PLANEB_MODULO_HI = (byte*) 53320
const nomodify byte* DTV_PLANEB_MODULO_LO = (byte*) 53319
const nomodify byte* DTV_PLANEB_START_HI = (byte*) 53323
const nomodify byte* DTV_PLANEB_START_LO = (byte*) 53321
const nomodify byte* DTV_PLANEB_START_MI = (byte*) 53322
const nomodify byte* DTV_PLANEB_STEP = (byte*) 53324
const byte OFFSET_STRUCT_MOS6526_CIA_PORT_A_DDR = 2
const nomodify byte* PROCPORT = (byte*) 1
const nomodify byte* PROCPORT_DDR = (byte*) 0
const nomodify byte PROCPORT_DDR_MEMORY_MASK = 7
const nomodify byte PROCPORT_RAM_CHARROM = 1
const nomodify byte PROCPORT_RAM_IO = 5
const nomodify byte* RASTER = (byte*) 53266
const nomodify byte* SCREEN = (byte*) 31744
const nomodify byte* VICII_CONTROL = (byte*) 53265
const nomodify byte* VICII_CONTROL2 = (byte*) 53270
const nomodify byte VICII_CSEL = 8
const nomodify byte VICII_DEN = $10
const nomodify byte VICII_ECM = $40
const nomodify byte VICII_MCM = $10
const nomodify byte* VICII_MEMORY = (byte*) 53272
const nomodify byte VICII_RSEL = 8
void dtvSetCpuBankSegment1(byte dtvSetCpuBankSegment1::cpuBankIdx)
const byte* dtvSetCpuBankSegment1::cpuBank = (byte*) 255
byte dtvSetCpuBankSegment1::cpuBankIdx
byte dtvSetCpuBankSegment1::cpuBankIdx#2 reg byte a 1001.0
void gfx_init()
void gfx_init_plane_charset8()
byte~ gfx_init_plane_charset8::$2 reg byte a 200002.0
byte gfx_init_plane_charset8::bits
byte gfx_init_plane_charset8::bits#0 bits zp[1]:5 10001.0
byte gfx_init_plane_charset8::bits#1 bits zp[1]:5 50000.5
byte gfx_init_plane_charset8::bits#2 bits zp[1]:5 44286.28571428572
byte gfx_init_plane_charset8::c
byte gfx_init_plane_charset8::c#2 reg byte a 200002.0
byte gfx_init_plane_charset8::c#3 reg byte a 200002.0
byte gfx_init_plane_charset8::ch
byte gfx_init_plane_charset8::ch#1 ch zp[1]:2 1501.5
byte gfx_init_plane_charset8::ch#8 ch zp[1]:2 117.76470588235294
byte* gfx_init_plane_charset8::chargen
byte* gfx_init_plane_charset8::chargen#1 chargen zp[2]:3 1312.6875
byte* gfx_init_plane_charset8::chargen#2 chargen zp[2]:3 15502.0
byte* gfx_init_plane_charset8::chargen#3 chargen zp[2]:3 2002.0
byte gfx_init_plane_charset8::col
byte gfx_init_plane_charset8::col#1 col zp[1]:8 30143.428571428572
byte gfx_init_plane_charset8::col#2 col zp[1]:8 38750.5
byte gfx_init_plane_charset8::col#5 col zp[1]:8 7001.0
byte gfx_init_plane_charset8::col#6 col zp[1]:8 2002.0
byte gfx_init_plane_charset8::cp
byte gfx_init_plane_charset8::cp#1 reg byte x 150001.5
byte gfx_init_plane_charset8::cp#2 reg byte x 22222.444444444445
byte gfx_init_plane_charset8::cr
byte gfx_init_plane_charset8::cr#1 cr zp[1]:9 15001.5
byte gfx_init_plane_charset8::cr#6 cr zp[1]:9 1428.7142857142858
byte* gfx_init_plane_charset8::gfxa
byte* gfx_init_plane_charset8::gfxa#1 gfxa zp[2]:6 23444.88888888889
byte* gfx_init_plane_charset8::gfxa#2 gfxa zp[2]:6 51667.33333333333
byte* gfx_init_plane_charset8::gfxa#5 gfxa zp[2]:6 7001.0
byte* gfx_init_plane_charset8::gfxa#6 gfxa zp[2]:6 2002.0
byte gfx_init_plane_charset8::gfxbCpuBank
const byte gfx_init_plane_charset8::gfxbCpuBank#0 gfxbCpuBank = (byte)CHARSET8/$4000
void gfx_init_screen0()
byte~ gfx_init_screen0::$0 reg byte a 20002.0
byte~ gfx_init_screen0::$1 zp[1]:9 10001.0
byte~ gfx_init_screen0::$2 reg byte a 20002.0
byte~ gfx_init_screen0::$3 reg byte a 20002.0
byte* gfx_init_screen0::ch
byte* gfx_init_screen0::ch#1 ch zp[2]:3 4200.6
byte* gfx_init_screen0::ch#2 ch zp[2]:3 5167.333333333333
byte* gfx_init_screen0::ch#3 ch zp[2]:3 2002.0
byte gfx_init_screen0::cx
byte gfx_init_screen0::cx#1 reg byte x 15001.5
byte gfx_init_screen0::cx#2 reg byte x 4286.142857142857
byte gfx_init_screen0::cy
byte gfx_init_screen0::cy#1 cy zp[1]:2 1501.5
byte gfx_init_screen0::cy#4 cy zp[1]:2 1200.3
void main()
byte~ main::$3 reg byte a 202.0
byte~ main::$4 reg byte a 202.0
byte~ main::$5 reg byte a 202.0
byte main::j
byte main::j#1 reg byte x 16.5
byte main::j#2 reg byte x 22.0
byte main::rst
byte main::rst#1 reg byte x 57.714285714285715

reg byte x [ main::j#2 main::j#1 ]
reg byte x [ gfx_init_screen0::cx#2 gfx_init_screen0::cx#1 ]
zp[1]:2 [ gfx_init_plane_charset8::ch#8 gfx_init_plane_charset8::ch#1 gfx_init_screen0::cy#4 gfx_init_screen0::cy#1 ]
zp[2]:3 [ gfx_init_plane_charset8::chargen#2 gfx_init_plane_charset8::chargen#3 gfx_init_plane_charset8::chargen#1 gfx_init_screen0::ch#2 gfx_init_screen0::ch#3 gfx_init_screen0::ch#1 ]
zp[1]:5 [ gfx_init_plane_charset8::bits#2 gfx_init_plane_charset8::bits#0 gfx_init_plane_charset8::bits#1 ]
zp[2]:6 [ gfx_init_plane_charset8::gfxa#2 gfx_init_plane_charset8::gfxa#5 gfx_init_plane_charset8::gfxa#6 gfx_init_plane_charset8::gfxa#1 ]
zp[1]:8 [ gfx_init_plane_charset8::col#2 gfx_init_plane_charset8::col#5 gfx_init_plane_charset8::col#6 gfx_init_plane_charset8::col#1 ]
reg byte x [ gfx_init_plane_charset8::cp#2 gfx_init_plane_charset8::cp#1 ]
reg byte a [ gfx_init_plane_charset8::c#2 gfx_init_plane_charset8::c#3 ]
reg byte a [ dtvSetCpuBankSegment1::cpuBankIdx#2 ]
reg byte x [ main::rst#1 ]
reg byte a [ main::$3 ]
reg byte a [ main::$4 ]
reg byte a [ main::$5 ]
reg byte a [ gfx_init_screen0::$0 ]
zp[1]:9 [ gfx_init_screen0::$1 gfx_init_plane_charset8::cr#6 gfx_init_plane_charset8::cr#1 ]
reg byte a [ gfx_init_screen0::$2 ]
reg byte a [ gfx_init_screen0::$3 ]
reg byte a [ gfx_init_plane_charset8::$2 ]
