const nomodify byte* BORDER_COLOR = (byte*) 53280
const nomodify byte* CHUNKY = (byte*) 32768
const nomodify struct MOS6526_CIA* CIA2 = (struct MOS6526_CIA*) 56576
const nomodify byte DTV_BADLINE_OFF = $20
const nomodify byte DTV_CHUNKY = $40
const nomodify byte DTV_COLORRAM_OFF = $10
const nomodify byte* DTV_CONTROL = (byte*) 53308
const nomodify byte* DTV_FEATURE = (byte*) 53311
const nomodify byte DTV_FEATURE_ENABLE = 1
const nomodify byte DTV_HIGHCOLOR = 4
const nomodify byte DTV_LINEAR = 1
const nomodify byte* DTV_PALETTE = (byte*) 53760
const nomodify byte* DTV_PLANEB_MODULO_HI = (byte*) 53320
const nomodify byte* DTV_PLANEB_MODULO_LO = (byte*) 53319
const nomodify byte* DTV_PLANEB_START_HI = (byte*) 53323
const nomodify byte* DTV_PLANEB_START_LO = (byte*) 53321
const nomodify byte* DTV_PLANEB_START_MI = (byte*) 53322
const nomodify byte* DTV_PLANEB_STEP = (byte*) 53324
const byte OFFSET_STRUCT_MOS6526_CIA_PORT_A_DDR = 2
const nomodify byte* PROCPORT = (byte*) 1
const nomodify byte* PROCPORT_DDR = (byte*) 0
const nomodify byte PROCPORT_DDR_MEMORY_MASK = 7
const nomodify byte PROCPORT_RAM_IO = 5
const nomodify byte* RASTER = (byte*) 53266
const nomodify byte* VICII_CONTROL = (byte*) 53265
const nomodify byte* VICII_CONTROL2 = (byte*) 53270
const nomodify byte VICII_CSEL = 8
const nomodify byte VICII_DEN = $10
const nomodify byte VICII_ECM = $40
const nomodify byte VICII_MCM = $10
const nomodify byte* VICII_MEMORY = (byte*) 53272
const nomodify byte VICII_RSEL = 8
void dtvSetCpuBankSegment1(byte dtvSetCpuBankSegment1::cpuBankIdx)
const byte* dtvSetCpuBankSegment1::cpuBank = (byte*) 255
byte dtvSetCpuBankSegment1::cpuBankIdx
byte dtvSetCpuBankSegment1::cpuBankIdx#1 reg byte a 2002.0
byte dtvSetCpuBankSegment1::cpuBankIdx#3 reg byte a 11002.0
void gfx_init_chunky()
word~ gfx_init_chunky::$5 zp[2]:7 1001.0
byte gfx_init_chunky::c
byte gfx_init_chunky::c#0 reg byte a 2002.0
byte* gfx_init_chunky::gfxb
byte* gfx_init_chunky::gfxb#1 gfxb zp[2]:5 420.59999999999997
byte* gfx_init_chunky::gfxb#3 gfxb zp[2]:5 1552.0
byte* gfx_init_chunky::gfxb#4 gfxb zp[2]:5 750.75
byte* gfx_init_chunky::gfxb#5 gfxb zp[2]:5 202.0
byte gfx_init_chunky::gfxbCpuBank
byte gfx_init_chunky::gfxbCpuBank#2 reg byte x 2002.0
byte gfx_init_chunky::gfxbCpuBank#4 reg byte x 1026.25
byte gfx_init_chunky::gfxbCpuBank#7 reg byte x 202.0
byte gfx_init_chunky::gfxbCpuBank#8 reg byte x 344.8888888888889
word gfx_init_chunky::x
word gfx_init_chunky::x#1 x zp[2]:3 1501.5
word gfx_init_chunky::x#2 x zp[2]:3 300.29999999999995
byte gfx_init_chunky::y
byte gfx_init_chunky::y#1 y zp[1]:2 151.5
byte gfx_init_chunky::y#6 y zp[1]:2 92.53846153846155
void main()
byte~ main::$3 reg byte a 202.0
byte~ main::$4 reg byte a 202.0
byte~ main::$5 reg byte a 202.0
byte main::j
byte main::j#1 reg byte x 16.5
byte main::j#2 reg byte x 22.0
byte main::rst
byte main::rst#1 reg byte x 57.714285714285715

reg byte x [ main::j#2 main::j#1 ]
zp[1]:2 [ gfx_init_chunky::y#6 gfx_init_chunky::y#1 ]
zp[2]:3 [ gfx_init_chunky::x#2 gfx_init_chunky::x#1 ]
reg byte x [ gfx_init_chunky::gfxbCpuBank#4 gfx_init_chunky::gfxbCpuBank#7 gfx_init_chunky::gfxbCpuBank#8 gfx_init_chunky::gfxbCpuBank#2 ]
zp[2]:5 [ gfx_init_chunky::gfxb#4 gfx_init_chunky::gfxb#3 gfx_init_chunky::gfxb#5 gfx_init_chunky::gfxb#1 ]
reg byte a [ dtvSetCpuBankSegment1::cpuBankIdx#3 dtvSetCpuBankSegment1::cpuBankIdx#1 ]
reg byte x [ main::rst#1 ]
reg byte a [ main::$3 ]
reg byte a [ main::$4 ]
reg byte a [ main::$5 ]
zp[2]:7 [ gfx_init_chunky::$5 ]
reg byte a [ gfx_init_chunky::c#0 ]
