const nomodify byte* SCREEN = (byte*) 1024
byte idx
byte idx#0 reg byte x 11.0
byte idx#1 reg byte x 4.0
byte idx#10 reg byte x 9.25
byte idx#11 reg byte x 7.8
byte idx#13 reg byte y 17.5
byte idx#14 reg byte y 5.5
byte idx#2 reg byte x 11.0
byte idx#3 reg byte y 4.0
void main()
byte main::i
byte main::i#1 reg byte a 22.0
byte main::i#2 reg byte a 11.0
byte main::j
byte main::j#1 reg byte y 8.25
byte main::j#2 j zp[1]:2 16.5
byte main::j#4 j zp[1]:2 22.0
byte main::k
byte main::k#1 reg byte a 11.0
byte main::k#2 reg byte x 11.0
byte main::k#3 reg byte x 22.0

reg byte a [ main::i#2 main::i#1 ]
reg byte x [ idx#10 idx#0 ]
zp[1]:2 [ main::j#2 main::j#4 ]
reg byte x [ idx#11 idx#1 idx#2 ]
reg byte x [ main::k#2 main::k#3 ]
reg byte y [ idx#13 idx#3 idx#14 ]
reg byte y [ main::j#1 ]
reg byte a [ main::k#1 ]
