
CONTROL FLOW GRAPH SSA

void main()
main: scope:[main]  from __start
  *SCREEN = 1
  to:main::@return
main::@return: scope:[main]  from main
  return 
  to:@return

void __start()
__start: scope:[__start]  from
  call main 
  to:__start::@1
__start::@1: scope:[__start]  from __start
  to:__start::@return
__start::@return: scope:[__start]  from __start::@1
  return 
  to:@return

SYMBOL TABLE SSA
const nomodify byte* SCREEN = (byte*)$400
void __start()
void main()

Adding number conversion cast (unumber) 1 in *SCREEN = 1
Successful SSA optimization PassNAddNumberTypeConversions
Inlining cast *SCREEN = (unumber)1
Successful SSA optimization Pass2InlineCast
Simplifying constant pointer cast (byte*) 1024
Simplifying constant integer cast 1
Successful SSA optimization PassNCastSimplification
Finalized unsigned number type (byte) 1
Successful SSA optimization PassNFinalizeNumberTypeConversions
Removing unused procedure __start
Removing unused procedure block __start
Removing unused procedure block __start::@1
Removing unused procedure block __start::@return
Successful SSA optimization PassNEliminateEmptyStart
CALL GRAPH

Created 0 initial phi equivalence classes
Coalesced down to 0 phi equivalence classes

FINAL CONTROL FLOW GRAPH

void main()
main: scope:[main]  from
  [0] *SCREEN = 1
  to:main::@return
main::@return: scope:[main]  from main
  [1] return 
  to:@return


VARIABLE REGISTER WEIGHTS
void main()

Initial phi equivalence classes
Complete equivalence classes
REGISTER UPLIFT POTENTIAL REGISTERS
Statement [0] *SCREEN = 1 [ ] (  [ ] { }  ) always clobbers reg byte a 

REGISTER UPLIFT SCOPES
Uplift Scope [main] 
Uplift Scope [] 

Uplifting [main] best 15 combination 
Uplifting [] best 15 combination 

ASSEMBLER BEFORE OPTIMIZATION
  // File Comments
  // Upstart
  // Commodore 64 PRG executable file
.file [name="constabsmin.prg", type="prg", segments="Program"]
.segmentdef Program [segments="Basic, Code, Data"]
.segmentdef Basic [start=$0801]
.segmentdef Code [start=$80d]
.segmentdef Data [startAfter="Code"]
.segment Basic
:BasicUpstart(main)
  // Global Constants & labels
  .label SCREEN = $400
.segment Code
  // main
main: {
    // [0] *SCREEN = 1 -- _deref_pbuc1=vbuc2 
    lda #1
    sta SCREEN
    jmp __breturn
    // main::@return
  __breturn:
    // [1] return 
    rts
}
  // File Data

ASSEMBLER OPTIMIZATIONS
Removing instruction jmp __breturn
Succesful ASM optimization Pass5NextJumpElimination
Removing instruction __breturn:
Succesful ASM optimization Pass5UnusedLabelElimination

FINAL SYMBOL TABLE
const nomodify byte* SCREEN = (byte*) 1024
void main()



FINAL ASSEMBLER
Score: 12

  // File Comments
  // Upstart
  // Commodore 64 PRG executable file
.file [name="constabsmin.prg", type="prg", segments="Program"]
.segmentdef Program [segments="Basic, Code, Data"]
.segmentdef Basic [start=$0801]
.segmentdef Code [start=$80d]
.segmentdef Data [startAfter="Code"]
.segment Basic
:BasicUpstart(main)
  // Global Constants & labels
  .label SCREEN = $400
.segment Code
  // main
main: {
    // *SCREEN = 1
    // [0] *SCREEN = 1 -- _deref_pbuc1=vbuc2 
    lda #1
    sta SCREEN
    // main::@return
    // }
    // [1] return 
    rts
}
  // File Data

