const nomodify byte* SCREEN = (byte*) 1024
void main()
byte~ main::$0 reg byte a 4.0
byte~ main::$1 reg byte a 4.0
byte sum(byte sum::a , byte sum::b)
byte sum::a
byte sum::a#2 reg byte x 11.0
byte sum::b
byte sum::b#2 reg byte a 11.0
byte sum::return
byte sum::return#0 reg byte a 4.0
byte sum::return#1 reg byte a 4.0
byte sum::return#2 reg byte a 3.75

reg byte x [ sum::a#2 ]
reg byte a [ sum::b#2 ]
reg byte a [ sum::return#0 ]
reg byte a [ main::$0 ]
reg byte a [ sum::return#1 ]
reg byte a [ main::$1 ]
reg byte a [ sum::return#2 ]
