const byte* fibs[$f]  = { fill( $f, 0) }
void main()
byte~ main::$2 reg byte a 22.0
byte main::i
byte main::i#1 reg byte x 16.5
byte main::i#2 reg byte x 18.333333333333332

reg byte x [ main::i#2 main::i#1 ]
reg byte a [ main::$2 ]
