void enableDLI(volatile void* enableDLI::dliptr)
volatile void* enableDLI::dliptr loadstore zp[2]:2 2.0
void fn1()
void main()
const to_nomodify byte* r = (byte*) 32768

zp[2]:2 [ enableDLI::dliptr ]
