const byte SIZEOF_POINTER = 2
const void()** addrtable[$100]  = { fill( $100, 0) }
void main()
void()* main::fn
void()* main::fn#0 fn zp[2]:2 2.0
void()* main::fn#1 fn_1 zp[2]:4 2.0
void myFunc()
const nomodify byte* myFunc::BORDER_COLOR = (byte*) 53280
void myFunc2()
const nomodify byte* myFunc2::BG_COLOR = (byte*) 53281

zp[2]:2 [ main::fn#0 ]
zp[2]:4 [ main::fn#1 ]
