const nomodify byte* SCREEN = (byte*) 1024
void __start()
void do10(void()* do10::fn)
void()* do10::fn
void()* do10::fn#3 fn zp[2]:4
byte do10::i
byte do10::i#1 i zp[1]:6 1501.5
byte do10::i#2 i zp[1]:6 1001.0
void hello()
const byte* hello::msg[7]  = "hello "
volatile byte idx loadstore zp[1]:7 38.125
void main()
void print(byte* print::msg)
byte print::i
byte print::i#1 reg byte y 151.5
byte print::i#2 reg byte y 101.0
byte* print::msg
byte* print::msg#3 msg zp[2]:2 33.666666666666664
void world()
const byte* world::msg[7]  = "world "

zp[2]:2 [ print::msg#3 ]
reg byte y [ print::i#2 print::i#1 ]
zp[2]:4 [ do10::fn#3 ]
zp[1]:6 [ do10::i#2 do10::i#1 ]
zp[1]:7 [ idx ]
