const byte OFFSET_STRUCT_BALL_SYM = 2
const byte OFFSET_STRUCT_BALL_VEL = 1
const struct Ball* balls[$19]  = { fill( $19, 0) }
void main()
byte~ main::$2 reg byte x 25.666666666666668
byte~ main::$4 reg byte a 22.0
byte main::i
byte main::i#1 reg byte y 22.0
byte main::i#2 reg byte y 7.857142857142857

reg byte y [ main::i#2 main::i#1 ]
reg byte a [ main::$4 ]
reg byte x [ main::$2 ]
