const nomodify byte* SCREEN = (byte*) 1024
const byte* SPRITE[]  = kickasm {{ .var pic = LoadPicture("balloon.png", List().add($000000, $ffffff))
    .for (var y=0; y<21; y++)
        .for (var x=0;x<3; x++)
            .byte pic.getSinglecolorByte(x,y)
 }}
const nomodify byte* SPRITES_ENABLE = (byte*) 53269
const nomodify byte* SPRITES_XPOS = (byte*) 53248
const nomodify byte* SPRITES_YPOS = (byte*) 53249
void main()

