const to_nomodify word* CHAR_COUNTS[$100]  = { fill( $100, 0) }
void main()
byte~ main::$3 reg byte a 33.0
word main::i
word main::i#1 i zp[2]:4 16.5
word main::i#2 i zp[2]:4 5.5
byte* main::screen
byte* main::screen#1 screen zp[2]:2 7.333333333333333
byte* main::screen#2 screen zp[2]:2 11.0

zp[2]:2 [ main::screen#2 main::screen#1 ]
zp[2]:4 [ main::i#2 main::i#1 ]
reg byte a [ main::$3 ]
