const nomodify void()** KERNEL_IRQ = (void()**) 788
const nomodify byte* SCREEN = (byte*) 1024
void __start()
volatile byte col1 loadstore zp[1]:2 8.0
volatile byte col2 loadstore zp[1]:3 2.6666666666666665
__interrupt(rom_min_c64) void irq()
void main()

zp[1]:2 [ col1 ]
zp[1]:3 [ col2 ]
