void main()
byte~ main::$1 reg byte a 22.0
const byte* main::buf[$10]  = (byte*) 4352
byte main::i
byte main::i#1 reg byte x 16.5
byte main::i#2 reg byte x 14.666666666666666

reg byte x [ main::i#2 main::i#1 ]
reg byte a [ main::$1 ]
