byte* MEM
byte* MEM#0 MEM zp[2]:2 4.0
byte* MEM#6 MEM zp[2]:2 13.0
byte* SCREEN_1
byte* SCREEN_1#0 SCREEN_1 zp[2]:4 2.6
byte* SCREEN_2
byte* SCREEN_2#0 SCREEN_2 zp[2]:6 4.333333333333333
void __start()
void main()
byte* malloc()
byte* malloc::return
byte* malloc::return#0 return zp[2]:6 3.75
byte* malloc::return#2 return_1 zp[2]:4 4.0
byte* malloc::return#3 return zp[2]:6 4.0

zp[2]:2 [ MEM#6 MEM#0 ]
zp[2]:4 [ malloc::return#2 SCREEN_1#0 ]
zp[2]:6 [ malloc::return#3 SCREEN_2#0 malloc::return#0 ]
