const byte SIZEOF_WORD = 2
void incw1()
void incw2()
void main()
const word* main::SCREEN = (word*) 1024
word w1
word w1#12 w1 zp[2]:2 13.0
word w1#13 w1 zp[2]:2 1.6666666666666667
word w2
word w2#11 w2 zp[2]:4 13.0
word w2#12 w2 zp[2]:4 1.875

zp[2]:2 [ w1#12 w1#13 ]
zp[2]:4 [ w2#11 w2#12 ]
