void main()
byte main::i
byte main::i#1 reg byte x 22.0
byte main::i#2 reg byte x 18.333333333333332
const byte* main::msg[]  = "message 2 "
const byte* main::screen = (byte*) 1024

reg byte x [ main::i#2 main::i#1 ]
