const to_nomodify byte* MESSAGE[]  = "hello brave new world!"
const nomodify byte* SCREEN = (byte*) 1024
void main()
byte main::i
byte main::i#1 reg byte x 22.0
byte main::i#2 reg byte x 9.166666666666666
byte main::idx
byte main::idx#1 reg byte y 22.0
byte main::idx#2 reg byte y 11.0
byte main::idx#5 reg byte y 16.5

reg byte x [ main::i#2 main::i#1 ]
reg byte y [ main::idx#2 main::idx#5 main::idx#1 ]
