const byte* SCREEN = (byte*) 1024
void line(byte line::l)
byte line::l
byte line::l#0 reg byte x 22.0
byte line::l#1 reg byte x 22.0
byte line::l#2 reg byte x 74.66666666666666
void main()
byte main::i
byte main::i#1 reg byte y 16.5
byte main::i#2 reg byte y 11.0
byte main::j
byte main::j#1 reg byte y 16.5
byte main::j#2 reg byte y 11.0
void plot(byte plot::x)
byte plot::x
byte plot::x#0 reg byte x 202.0
byte plot::x#1 reg byte x 202.0
byte plot::x#2 reg byte x 1203.0

reg byte y [ main::i#2 main::i#1 ]
reg byte y [ main::j#2 main::j#1 ]
reg byte x [ line::l#2 line::l#0 line::l#1 ]
reg byte x [ plot::x#2 plot::x#0 plot::x#1 ]
