const nomodify struct MOS6529_PIO* KEYBOARD_PORT = (struct MOS6529_PIO*) 64816
const byte OFFSET_STRUCT_MOS7360_TED_KEYBOARD_INPUT = 8
const nomodify struct MOS7360_TED* TED = (struct MOS7360_TED*) 65280
byte kbhit()
byte kbhit::return
byte kbhit::return#0 reg byte a 22.0
byte kbhit::return#1 reg byte a 37.33333333333333
void main()
byte~ main::$0 reg byte a 22.0

reg byte a [ kbhit::return#0 ]
reg byte a [ main::$0 ]
reg byte a [ kbhit::return#1 ]
