void main()
byte~ main::$5 reg byte a 11.0
byte~ main::$7 reg byte a 22.0
const nomodify byte* main::SCREEN = (byte*) 1024
byte main::b
byte main::b#1 reg byte x 16.5
byte main::b#2 reg byte x 6.285714285714286

reg byte x [ main::b#2 main::b#1 ]
reg byte a [ main::$7 main::$5 ]
