const nomodify byte* SCREEN = (byte*) 1024
const byte* build[$28]  = { fill( $28, 0) }
const byte* hello[]  = "hello"
void main()
byte main::i
byte main::i#1 reg byte x 22.0
byte main::i#2 reg byte x 18.333333333333332
const byte* space[]  = " "
byte* strncat(byte* strncat::destination , to_nomodify byte* strncat::source , word strncat::num)
byte* strncat::destination
byte* strncat::dst
byte* strncat::dst#1 dst zp[2]:4 202.0
byte* strncat::dst#2 dst zp[2]:4 202.0
byte* strncat::dst#3 dst zp[2]:4 202.0
byte* strncat::dst#5 dst zp[2]:4 85.99999999999999
word strncat::num
word strncat::num#3 num zp[2]:6 101.0
word strncat::num#4 num zp[2]:6 60.599999999999994
byte* strncat::return
to_nomodify byte* strncat::source
to_nomodify byte* strncat::source#3 source zp[2]:2 40.4
to_nomodify byte* strncat::source#4 source zp[2]:2 202.0
to_nomodify byte* strncat::source#7 source zp[2]:2 25.25
const byte* world[]  = "world war 3"

reg byte x [ main::i#2 main::i#1 ]
zp[2]:2 [ strncat::source#4 strncat::source#7 strncat::source#3 ]
zp[2]:4 [ strncat::dst#5 strncat::dst#3 strncat::dst#1 strncat::dst#2 ]
zp[2]:6 [ strncat::num#4 strncat::num#3 ]
