const struct Point $0 = { x: 1, y: 2 }
const byte OFFSET_STRUCT_POINT_Y = 1
const nomodify byte* SCREEN = (byte*) 1024
const byte SIZEOF_STRUCT_POINT = 2
byte idx
byte idx#12 idx zp[1]:2 12.0
byte idx#13 idx zp[1]:2 2.6
byte idx#3 reg byte y 16.5
void main()
struct Point main::point loadstore zp[2]:3
const struct Point* main::ptr = &main::point
void print(byte print::p_x , byte print::p_y)
struct Point print::p
byte print::p_x
byte print::p_x#0 reg byte y 2.0
byte print::p_x#1 reg byte y 2.0
byte print::p_x#2 reg byte y 15.0
byte print::p_y
byte print::p_y#0 reg byte x 4.0
byte print::p_y#1 reg byte x 4.0
byte print::p_y#2 reg byte x 5.0

reg byte y [ print::p_x#2 print::p_x#0 print::p_x#1 ]
zp[1]:2 [ idx#12 idx#13 ]
reg byte x [ print::p_y#2 print::p_y#0 print::p_y#1 ]
reg byte y [ idx#3 ]
zp[2]:3 [ main::point ]
