const byte* MSG[]  = "CAMELOT!"su
const byte* SCREEN = (byte*) 1024
void main()
byte~ main::$1 reg byte a 22.0
byte main::i
byte main::i#1 reg byte x 22.0
byte main::i#2 reg byte x 13.75

reg byte x [ main::i#2 main::i#1 ]
reg byte a [ main::$1 ]
